\relax 
\citation{knuthwebsite}
\citation{latexcompanion}
\@writefile{toc}{\contentsline {section}{\numberline {1}Introduction}{2}\protected@file@percent }
\newlabel{Intro}{{1}{2}}
\@writefile{toc}{\contentsline {subsection}{\numberline {1.1}Intro Subsection}{2}\protected@file@percent }
\@writefile{lof}{\contentsline {figure}{\numberline {1}{\ignorespaces Well locations}}{2}\protected@file@percent }
\newlabel{fig: Well locations}{{1}{2}}
\@writefile{toc}{\contentsline {subsection}{\numberline {1.2}Intro Subsection II}{3}\protected@file@percent }
\newlabel{Intro Subsection II}{{1.2}{3}}
\@writefile{lot}{\contentsline {table}{\numberline {1}{\ignorespaces Completions Table}}{3}\protected@file@percent }
\newlabel{Completions Table}{{1}{3}}
\citation{einstein}
\@writefile{toc}{\contentsline {section}{\numberline {2}Body}{4}\protected@file@percent }
\newlabel{Body}{{2}{4}}
\@writefile{toc}{\contentsline {subsection}{\numberline {2.1}Equation Example}{4}\protected@file@percent }
\newlabel{Simple Equation}{{1}{4}}
\@writefile{toc}{\contentsline {subsection}{\numberline {2.2}Differential Equation Examples}{4}\protected@file@percent }
\newlabel{Subsection Dif Eq}{{2.2}{4}}
\newlabel{1st Dif Eq}{{2}{4}}
\newlabel{2nd Dif Eq}{{3}{4}}
\newlabel{3rd Dif Eq}{{4}{4}}
\newlabel{4th Dif Eq}{{5}{4}}
\@writefile{toc}{\contentsline {section}{\numberline {3}Conclusion}{5}\protected@file@percent }
\bibstyle{abbrv}
\bibdata{bib_Haden_Kolmer}
\bibcite{einstein}{1}
\bibcite{latexcompanion}{2}
\bibcite{knuthwebsite}{3}
\@writefile{toc}{\contentsline {section}{References}{6}\protected@file@percent }
