\contentsline {section}{\numberline {1}Introduction}{2}%
\contentsline {subsection}{\numberline {1.1}Intro Subsection}{2}%
\contentsline {subsection}{\numberline {1.2}Intro Subsection II}{3}%
\contentsline {section}{\numberline {2}Body}{4}%
\contentsline {subsection}{\numberline {2.1}Equation Example}{4}%
\contentsline {subsection}{\numberline {2.2}Differential Equation Examples}{4}%
\contentsline {section}{\numberline {3}Conclusion}{5}%
\contentsline {section}{References}{6}%
