\relax 
\@writefile{toc}{\contentsline {section}{\numberline {1}Introduction}{2}\protected@file@percent }
\newlabel{Intro}{{1}{2}}
\@writefile{toc}{\contentsline {section}{\numberline {2}Equations}{3}\protected@file@percent }
\newlabel{Equations}{{2}{3}}
\newlabel{dFa}{{1}{3}}
\newlabel{dFb}{{2}{3}}
\newlabel{dFc}{{3}{3}}
\newlabel{dT}{{4}{3}}
\@writefile{toc}{\contentsline {section}{\numberline {3}Results}{4}\protected@file@percent }
\newlabel{Results}{{3}{4}}
\@writefile{lof}{\contentsline {figure}{\numberline {1}{\ignorespaces Temperature Profile}}{4}\protected@file@percent }
\newlabel{fig: Temp}{{1}{4}}
\@writefile{lof}{\contentsline {figure}{\numberline {2}{\ignorespaces Profile of molar flow rates Fa, Fb, and Fc}}{5}\protected@file@percent }
\newlabel{fig: Molar}{{2}{5}}
